…
response <- adlib_get(query)
response
#> Data response object with 1000 entries.
```

The response object can be converted to a table with `as_tibble`. We will specify that we want an `ad_table` out of `as_tibble` (although we don't have to, because that's the default).

```{r eval=FALSE}
ad_table <- as_tibble(response, type = 'ad', censor_access_token = TRUE)
ad_table
#> # A tibble: 1,000 x 17
#>    ad_creation_time    ad_creative_body ad_creative_lin… ad_creative_lin…
#>    <dttm>              <chr>            <chr>            <chr>           
#>  1 2019-12-10 15:06:54 Polling numbers… www.wearemitu.c… "   "           
#>  2 2019-12-10 15:06:50 Polling numbers… www.wearemitu.c… "   "           
#>  3 2019-12-10 15:06:46 Polling numbers… www.wearemitu.c… "   "           
#>  4 2019-12-10 23:36:46 I helped pass l… fb.me            Everyone should…
#>  5 2019-12-10 23:36:46 Nobody should h… fb.me            Everyone should…
#>  6 2019-12-10 23:36:42 Nobody should h… fb.me            Everyone should…
#>  7 2019-12-10 23:36:31 Nobody should h… fb.me            Everyone should…
#>  8 2019-12-10 23:36:27 I helped pass l… fb.me            Everyone should…
#>  9 2019-12-10 23:36:27 Nobody should h… fb.me            Everyone should…
#> 10 2019-12-10 23:36:12 I helped pass l… fb.me            Everyone should…
#> # … with 990 more rows, and 13 more variables: ad_creative_link_title <chr>,
#> #   ad_delivery_start_time <dttm>, ad_delivery_stop_time <dttm>,
#> #   currency <chr>, funding_entity <chr>, page_id <chr>, page_name <chr>,
#> #   spend_lower <dbl>, spend_upper <dbl>, adlib_id <chr>,
#> #   impressions_lower <dbl>, impressions_upper <dbl>, ad_snapshot_url <chr>
```
…
# Demographic tables
The demographic table provides estimates of the number of impressions that the ad receives by age and gender. There is one row per combination of age bucket, gender, and ad ID. To build this table for this same set of ads, we need to get the right dataset by changing the `fields` argument in the query.

```{r eval=FALSE}
demo_query <- adlib_build_query(
  ad_reached_countries = "US",
  search_terms = "medicare",
  impression_condition = "HAS_IMPRESSIONS_YESTERDAY",
  fields = "demographic_data"
)
demo_response <- adlib_get(demo_query)
demo_response
#> Data response object with 1000 entries.
as_tibble(demo_response, type = 'demographic')
#> # A tibble: 10,847 x 4
#>    percentage age   gender  adlib_id        
#>         <dbl> <chr> <chr>   <chr>           
#>  1    0.0844  25-34 male    1037628349909689
#>  2    0.00444 18-24 female  1037628349909689
#>  3    0.00444 13-17 unknown 1037628349909689
#>  4    0.00444 35-44 unknown 1037628349909689
#>  5    0.00444 55-64 unknown 1037628349909689
#>  6    0.00889 13-17 male    1037628349909689
#>  7    0.0133  35-44 female  1037628349909689
#>  8    0.00444 13-17 female  1037628349909689
#>  9    0.0133  65+   unknown 1037628349909689
#> 10    0.156   65+   male    1037628349909689
#> # … with 10,837 more rows
```
…
# Region Tables
The region table is similar to the demographic table in that it contains a distribution over bucketed values. The data for this table can be retrieved by making a query with `"region_data"` as the fields.

```{r eval=FALSE}
reg_query <- adlib_build_query(
  ad_reached_countries = "US",
  search_terms = "medicare",
  impression_condition = "HAS_IMPRESSIONS_YESTERDAY",
  fields = "region_data"
)
reg_response <- adlib_get(reg_query)
reg_response
#> Data response object with 1000 entries.
as_tibble(reg_response, type = 'region')
#> # A tibble: 18,076 x 3
#>    percentage region         adlib_id        
#>         <dbl> <chr>          <chr>           
#>  1    0.0267  Alabama        1037628349909689
#>  2    0.0267  Oklahoma       1037628349909689
#>  3    0.00889 Nebraska       1037628349909689
#>  4    0.00889 New Jersey     1037628349909689
#>  5    0.0178  New Mexico     1037628349909689
#>  6    0.0356  New York       1037628349909689
#>  7    0.0267  North Carolina 1037628349909689
#>  8    0.00889 North Dakota   1037628349909689
#>  9    0.0444  Ohio           1037628349909689
#> 10    0.0267  Oregon         1037628349909689
#> # … with 18,066 more rows
```
…
