Nesting and Flattening • Radlibrary
…
Careful about combinatorial explosion with unnesting

Unnesting multiple nested columns at the same time can create an undesired combinatorial explosion. For example,

data %>% 
  select(id, publisher_platforms, demographic_distribution) %>% 
  unnest(publisher_platforms, keep_empty = TRUE) %>% 
  unnest(demographic_distribution, keep_empty = TRUE)
#> # A tibble: 29 × 5
#>    id      publisher_platforms percentage age   gender 
#>    <chr>   <chr>                    <dbl> <chr> <chr>  
#>  1 fake123 facebook              NA       NA    NA     
#>  2 fake123 messenger             NA       NA    NA     
#>  3 fake456 facebook               0.00220 35-44 unknown
#>  4 fake456 facebook               0.00220 55-64 unknown
#>  5 fake456 facebook               0.0264  35-44 female 
#>  6 fake456 facebook               0.104   55-64 female 
#>  7 fake456 facebook               0.00440 25-34 female 
#>  8 fake456 facebook               0.0705  45-54 female 
#>  9 fake456 facebook               0.163   55-64 male   
#> 10 fake456 facebook               0.0374  25-34 male   
#> # … with 19 more rows
…
